newmtl lambert6SG
illum 4
Kd 0.00 0.00 0.00
Ka 0.00 0.00 0.00
Tf 1.00 1.00 1.00
map_Kd Captura.PNG
Ni 1.00
newmtl lambert7SG
illum 4
Kd 0.00 0.00 0.00
Ka 0.00 0.00 0.00
Tf 1.00 1.00 1.00
map_Kd TexturesCom_Cargo0092_1_M.jpg
Ni 1.00
newmtl lambert10SG
illum 4
Kd 0.00 0.00 0.00
Ka 0.00 0.00 0.00
Tf 1.00 1.00 1.00
map_Kd TexturesCom_CardboardPlain0070_2_masked_S.jpg
Ni 1.00
newmtl lambert11SG
illum 4
Kd 0.00 0.00 0.00
Ka 0.00 0.00 0.00
Tf 1.00 1.00 1.00
map_Kd Rueda.png
Ni 1.00
newmtl lambert12SG
illum 4
Kd 0.00 0.00 0.00
Ka 0.00 0.00 0.00
Tf 1.00 1.00 1.00
map_Kd aakash-sharma-waterheater.jpg
Ni 1.00
newmtl lambert13SG
illum 4
Kd 0.00 0.00 0.00
Ka 0.00 0.00 0.00
Tf 1.00 1.00 1.00
map_Kd Capturaasdas.PNG
Ni 1.00
newmtl lambert14SG
illum 4
Kd 0.00 0.00 0.00
Ka 0.00 0.00 0.00
Tf 1.00 1.00 1.00
map_Kd TexturesCom_MetalRusted0049_M.jpg
Ni 1.00
newmtl lambert15SG
illum 4
Kd 0.00 0.00 0.00
Ka 0.00 0.00 0.00
Tf 1.00 1.00 1.00
map_Kd dustbin-3-textured-old-01.jpg
Ni 1.00
newmtl lambert16SG
illum 4
Kd 0.00 0.00 0.00
Ka 0.00 0.00 0.00
Tf 1.00 1.00 1.00
Ni 1.00
newmtl lambert17SG
illum 4
Kd 0.00 0.00 0.00
Ka 0.00 0.00 0.00
Tf 1.00 1.00 1.00
map_Kd Textura_Basura.png
bump  -bm 20 BumpBasura2.png
Ni 1.00
newmtl lambert18SG
illum 4
Kd 0.00 0.00 0.00
Ka 0.00 0.00 0.00
Tf 1.00 1.00 1.00
map_Kd Texturas_Oxido.png
Ni 1.00
newmtl lambert19SG
illum 4
Kd 0.00 0.00 0.00
Ka 0.00 0.00 0.00
Tf 1.00 1.00 1.00
map_Kd bali-greece-april-30-2016-old-red-pickup-truck-toyota-parked-on-mithos-HPDBEG.jpg
Ni 1.00
