# This file uses centimeters as units for non-parametric coordinates.

mtllib Llanta.mtl
g default
v 1.247271 -0.393635 -0.720996
v 0.719465 -0.393635 -1.248802
v -0.001531 -0.393635 -1.441992
v -0.722527 -0.393635 -1.248802
v -1.250332 -0.393635 -0.720996
v -1.443523 -0.393635 0.000000
v -1.250332 -0.393635 0.720996
v -0.722527 -0.393635 1.248802
v -0.001531 -0.393635 1.441992
v 0.719465 -0.393635 1.248802
v 1.247271 -0.393635 0.720996
v 1.440462 -0.393635 0.000000
v 1.247271 0.398999 -0.720996
v 0.719465 0.398999 -1.248802
v -0.001531 0.398999 -1.441992
v -0.722527 0.398999 -1.248802
v -1.250332 0.398999 -0.720996
v -1.443523 0.398999 0.000000
v -1.250332 0.398999 0.720996
v -0.722527 0.398999 1.248802
v -0.001531 0.398999 1.441992
v 0.719465 0.398999 1.248802
v 1.247271 0.398999 0.720996
v 1.440462 0.398999 0.000000
v 0.997150 -0.552592 -0.576589
v 0.575058 -0.552592 -0.998681
v -0.001531 -0.552592 -1.153177
v -0.578120 -0.552592 -0.998681
v -1.000211 -0.552592 -0.576589
v -1.154708 -0.552592 0.000000
v -1.000211 -0.552592 0.576589
v -0.578120 -0.552592 0.998681
v -0.001531 -0.552592 1.153177
v 0.575058 -0.552592 0.998681
v 0.997150 -0.552592 0.576589
v 1.151647 -0.552592 0.000000
v 0.997150 0.557957 -0.576589
v 0.575058 0.557957 -0.998681
v -0.001531 0.557957 -1.153177
v -0.578120 0.557957 -0.998681
v -1.000211 0.557957 -0.576589
v -1.154708 0.557957 0.000000
v -1.000211 0.557957 0.576589
v -0.578120 0.557957 0.998681
v -0.001531 0.557957 1.153177
v 0.575058 0.557957 0.998681
v 0.997150 0.557957 0.576589
v 1.151647 0.557957 0.000000
v 0.820414 -0.552592 -0.474550
v 0.473019 -0.552592 -0.821945
v -0.001531 -0.552592 -0.949100
v -0.476081 -0.552592 -0.821945
v -0.823475 -0.552592 -0.474550
v -0.950631 -0.552592 0.000000
v -0.823475 -0.552592 0.474550
v -0.476081 -0.552592 0.821945
v -0.001531 -0.552592 0.949100
v 0.473019 -0.552592 0.821945
v 0.820414 -0.552592 0.474550
v 0.947569 -0.552592 0.000000
v 0.820414 0.557957 -0.474550
v 0.473019 0.557957 -0.821945
v -0.001531 0.557957 -0.949100
v -0.476081 0.557957 -0.821945
v -0.823475 0.557957 -0.474550
v -0.950631 0.557957 0.000000
v -0.823475 0.557957 0.474550
v -0.476081 0.557957 0.821945
v -0.001531 0.557957 0.949100
v 0.473019 0.557957 0.821945
v 0.820414 0.557957 0.474550
v 0.947569 0.557957 0.000000
vt 0.777765 0.083056
vt 0.678339 0.025674
vt 0.835190 0.297296
vt 0.835190 0.182499
vt 0.563542 0.025694
vt 0.777792 0.396713
vt 0.464135 0.083109
vt 0.678375 0.454111
vt 0.406754 0.182535
vt 0.563578 0.454110
vt 0.406773 0.297332
vt 0.464162 0.396712
vt 0.464189 0.396739
vt 0.406763 0.297295
vt 0.563615 0.454120
vt 0.406764 0.182499
vt 0.678412 0.454101
vt 0.464162 0.083082
vt 0.777819 0.396686
vt 0.563579 0.025684
vt 0.835200 0.297259
vt 0.678376 0.025684
vt 0.835181 0.182463
vt 0.777793 0.083083
vt 0.742931 0.118147
vt 0.665717 0.073482
vt 0.576515 0.073407
vt 0.499227 0.117943
vt 0.454561 0.195157
vt 0.454487 0.284359
vt 0.499023 0.361647
vt 0.576237 0.406313
vt 0.665439 0.406387
vt 0.742727 0.361851
vt 0.787393 0.284637
vt 0.787467 0.195436
vt 0.787385 0.284666
vt 0.787475 0.195464
vt 0.742706 0.361872
vt 0.665410 0.406395
vt 0.576208 0.406305
vt 0.499002 0.361626
vt 0.454479 0.284330
vt 0.454569 0.195129
vt 0.499248 0.117922
vt 0.576544 0.073399
vt 0.665746 0.073489
vt 0.742952 0.118168
vt 0.053450 0.391185
vt 0.029999 0.391185
vt 0.287954 0.391185
vt 0.264504 0.391185
vt 0.241053 0.391185
vt 0.217603 0.391185
vt 0.194152 0.391185
vt 0.170702 0.391185
vt 0.147251 0.391185
vt 0.123801 0.391185
vt 0.100351 0.391185
vt 0.076900 0.391185
vt 0.311405 0.444195
vt 0.053450 0.444195
vt 0.287954 0.444195
vt 0.264504 0.444195
vt 0.241053 0.444195
vt 0.217603 0.444195
vt 0.194152 0.444195
vt 0.170702 0.444195
vt 0.147251 0.444195
vt 0.123801 0.444195
vt 0.100351 0.444195
vt 0.076900 0.444195
vt 0.721366 0.139711
vt 0.758010 0.203328
vt 0.657824 0.102939
vt 0.584408 0.102864
vt 0.520791 0.139508
vt 0.484018 0.203051
vt 0.483944 0.276466
vt 0.520587 0.340084
vt 0.584130 0.376856
vt 0.657546 0.376930
vt 0.721163 0.340287
vt 0.757935 0.276744
vt 0.758004 0.203305
vt 0.721349 0.139694
vt 0.757942 0.276720
vt 0.721180 0.340270
vt 0.657570 0.376924
vt 0.584154 0.376862
vt 0.520605 0.340101
vt 0.483950 0.276490
vt 0.484012 0.203074
vt 0.520773 0.139525
vt 0.584384 0.102871
vt 0.657800 0.102932
vt 0.311405 0.391185
vt 0.029999 0.444195
vt 4.000229 0.941719
vt -0.716221 0.524352
vt 3.214155 0.941719
vt 3.607192 0.941719
vt 2.821117 0.941719
vt 2.428079 0.941719
vt 2.035041 0.941719
vt 1.642004 0.941719
vt 1.248967 0.941719
vt 0.855929 0.941719
vt 0.462891 0.941719
vt 0.069854 0.941719
vt -0.323184 0.941719
vt -0.716221 0.941719
vt 3.214155 0.524352
vt 3.607192 0.524352
vt 2.821117 0.524352
vt 2.428079 0.524352
vt 2.035041 0.524353
vt 1.642004 0.524352
vt 1.248966 0.524352
vt 0.855929 0.524352
vt 0.462891 0.524353
vt 0.069854 0.524352
vt -0.323184 0.524352
vt 4.000229 0.524352
vn 0.841591 -0.235867 -0.485893
vn 0.485893 -0.235867 -0.841591
vn 0.485893 0.235867 -0.841591
vn 0.841591 0.235867 -0.485893
vn -0.000000 -0.235867 -0.971785
vn -0.000000 0.235867 -0.971785
vn -0.485893 -0.235867 -0.841591
vn -0.485893 0.235867 -0.841591
vn -0.841591 -0.235867 -0.485893
vn -0.841591 0.235867 -0.485893
vn -0.971785 -0.235867 0.000000
vn -0.971785 0.235867 0.000000
vn -0.841591 -0.235867 0.485893
vn -0.841591 0.235867 0.485893
vn -0.485893 -0.235867 0.841591
vn -0.485893 0.235867 0.841591
vn -0.000000 -0.235867 0.971785
vn -0.000000 0.235867 0.971785
vn 0.485893 -0.235867 0.841591
vn 0.485893 0.235867 0.841591
vn 0.841591 -0.235867 0.485893
vn 0.841591 0.235867 0.485893
vn 0.971785 -0.235867 0.000000
vn 0.971785 0.235868 0.000000
vn 0.350066 -0.868854 -0.350066
vn 0.350066 -0.868854 -0.350066
vn 0.128133 -0.868854 -0.478199
vn 0.128133 -0.868854 -0.478199
vn -0.128133 -0.868854 -0.478199
vn -0.128133 -0.868854 -0.478199
vn -0.350066 -0.868854 -0.350066
vn -0.350066 -0.868854 -0.350066
vn -0.478199 -0.868854 -0.128133
vn -0.478199 -0.868854 -0.128133
vn -0.478199 -0.868854 0.128133
vn -0.478199 -0.868854 0.128133
vn -0.350066 -0.868854 0.350066
vn -0.350066 -0.868854 0.350066
vn -0.128133 -0.868854 0.478199
vn -0.128133 -0.868854 0.478199
vn 0.128133 -0.868854 0.478199
vn 0.128133 -0.868854 0.478199
vn 0.350066 -0.868854 0.350066
vn 0.350066 -0.868854 0.350066
vn 0.478199 -0.868854 0.128133
vn 0.478199 -0.868854 0.128133
vn 0.478199 -0.868854 -0.128133
vn 0.478199 -0.868854 -0.128133
vn 0.350066 0.868854 -0.350066
vn 0.350066 0.868854 -0.350066
vn 0.128133 0.868854 -0.478199
vn 0.128133 0.868854 -0.478199
vn -0.128133 0.868854 -0.478199
vn -0.128133 0.868854 -0.478199
vn -0.350066 0.868854 -0.350066
vn -0.350066 0.868854 -0.350066
vn -0.478199 0.868854 -0.128133
vn -0.478199 0.868854 -0.128133
vn -0.478199 0.868854 0.128133
vn -0.478199 0.868854 0.128133
vn -0.350066 0.868854 0.350066
vn -0.350066 0.868854 0.350066
vn -0.128133 0.868854 0.478199
vn -0.128133 0.868854 0.478199
vn 0.128133 0.868854 0.478199
vn 0.128133 0.868854 0.478199
vn 0.350066 0.868854 0.350066
vn 0.350066 0.868854 0.350066
vn 0.478199 0.868854 0.128133
vn 0.478199 0.868854 0.128133
vn 0.478199 0.868854 -0.128133
vn 0.478199 0.868854 -0.128133
vn 0.000000 -1.000000 0.000000
vn 0.000000 -1.000000 0.000000
vn -0.842599 -0.231016 0.486475
vn -0.486475 -0.231016 0.842599
vn 0.000000 -1.000000 0.000000
vn 0.000000 -1.000000 0.000000
vn -0.000000 -0.231016 0.972950
vn 0.000000 -1.000000 0.000000
vn 0.000000 -1.000000 0.000000
vn 0.486475 -0.231016 0.842599
vn 0.000000 -1.000000 -0.000000
vn 0.000000 -1.000000 -0.000000
vn 0.842600 -0.231016 0.486474
vn 0.000000 -1.000000 0.000000
vn 0.000000 -1.000000 0.000000
vn 0.972950 -0.231016 0.000000
vn 0.000000 -1.000000 0.000000
vn 0.000000 -1.000000 0.000000
vn 0.842600 -0.231016 -0.486474
vn 0.000000 -1.000000 0.000000
vn 0.000000 -1.000000 0.000000
vn 0.486475 -0.231016 -0.842599
vn 0.000000 -1.000000 0.000000
vn 0.000000 -1.000000 0.000000
vn -0.000000 -0.231016 -0.972950
vn 0.000000 -1.000000 -0.000000
vn 0.000000 -1.000000 -0.000000
vn -0.486475 -0.231016 -0.842599
vn 0.000000 -1.000000 -0.000000
vn 0.000000 -1.000000 -0.000000
vn -0.842599 -0.231016 -0.486475
vn 0.000000 -1.000000 0.000000
vn 0.000000 -1.000000 0.000000
vn -0.972950 -0.231016 0.000000
vn 0.000000 -1.000000 0.000000
vn 0.000000 -1.000000 0.000000
vn 0.000000 1.000000 0.000000
vn 0.000000 1.000000 0.000000
vn -0.486475 0.231016 0.842599
vn -0.842599 0.231016 0.486475
vn 0.000000 1.000000 -0.000000
vn 0.000000 1.000000 -0.000000
vn -0.000000 0.231016 0.972950
vn 0.000000 1.000000 0.000000
vn 0.000000 1.000000 0.000000
vn 0.486475 0.231016 0.842599
vn 0.000000 1.000000 0.000000
vn 0.000000 1.000000 0.000000
vn 0.842600 0.231016 0.486474
vn 0.000000 1.000000 -0.000000
vn 0.000000 1.000000 -0.000000
vn 0.972950 0.231016 0.000000
vn 0.000000 1.000000 0.000000
vn 0.000000 1.000000 0.000000
vn 0.842600 0.231016 -0.486474
vn 0.000000 1.000000 -0.000000
vn 0.000000 1.000000 -0.000000
vn 0.486475 0.231016 -0.842599
vn 0.000000 1.000000 -0.000000
vn 0.000000 1.000000 -0.000000
vn -0.000000 0.231016 -0.972950
vn 0.000000 1.000000 0.000000
vn 0.000000 1.000000 0.000000
vn -0.486475 0.231016 -0.842599
vn 0.000000 1.000000 -0.000000
vn 0.000000 1.000000 -0.000000
vn -0.842599 0.231016 -0.486475
vn 0.000000 1.000000 0.000000
vn 0.000000 1.000000 0.000000
vn -0.972950 0.231016 0.000000
vn 0.000000 1.000000 -0.000000
vn 0.000000 1.000000 -0.000000
s 1
g Llanta Props
usemtl lambert11SG
f 1/114/1 2/124/2 14/99/3 13/102/4
f 2/100/2 3/123/5 15/111/6 14/112/3
f 3/123/5 4/122/7 16/110/8 15/111/6
f 4/122/7 5/121/9 17/109/10 16/110/8
f 5/121/9 6/120/11 18/108/12 17/109/10
f 6/120/11 7/119/13 19/107/14 18/108/12
f 7/119/13 8/118/15 20/106/16 19/107/14
f 8/118/15 9/117/17 21/105/18 20/106/16
f 9/117/17 10/116/19 22/104/20 21/105/18
f 10/116/19 11/115/21 23/103/22 22/104/20
f 11/115/21 12/113/23 24/101/24 23/103/22
f 12/113/23 1/114/1 13/102/4 24/101/24
f 2/2/2 1/1/1 25/25/25 26/26/26
f 3/5/5 2/2/2 26/26/27 27/27/28
f 4/7/7 3/5/5 27/27/29 28/28/30
f 5/9/9 4/7/7 28/28/31 29/29/32
f 6/11/11 5/9/9 29/29/33 30/30/34
f 7/13/13 6/11/11 30/30/35 31/31/36
f 8/15/15 7/13/13 31/31/37 32/32/38
f 9/17/17 8/15/15 32/32/39 33/33/40
f 10/19/19 9/17/17 33/33/41 34/34/42
f 11/21/21 10/19/19 34/34/43 35/35/44
f 12/23/23 11/21/21 35/35/45 36/36/46
f 1/1/1 12/23/23 36/36/47 25/25/48
f 13/4/4 14/3/3 38/37/49 37/38/50
f 14/3/3 15/6/6 39/39/51 38/37/52
f 15/6/6 16/8/8 40/40/53 39/39/54
f 16/8/8 17/10/10 41/41/55 40/40/56
f 17/10/10 18/12/12 42/42/57 41/41/58
f 18/12/12 19/14/14 43/43/59 42/42/60
f 19/14/14 20/16/16 44/44/61 43/43/62
f 20/16/16 21/18/18 45/45/63 44/44/64
f 21/18/18 22/20/20 46/46/65 45/45/66
f 22/20/20 23/22/22 47/47/67 46/46/68
f 23/22/22 24/24/24 48/48/69 47/47/70
f 24/24/24 13/4/4 37/38/71 48/48/72
s 2
f 26/26/73 25/25/74 49/86/75 50/96/76
f 27/27/77 26/26/78 50/96/76 51/95/79
f 28/28/80 27/27/81 51/95/79 52/94/82
f 29/29/83 28/28/84 52/94/82 53/93/85
f 30/30/86 29/29/87 53/93/85 54/92/88
f 31/31/89 30/30/90 54/92/88 55/91/91
f 32/32/92 31/31/93 55/91/91 56/90/94
f 33/33/95 32/32/96 56/90/94 57/89/97
f 34/34/98 33/33/99 57/89/97 58/88/100
f 35/35/101 34/34/102 58/88/100 59/87/103
f 36/36/104 35/35/105 59/87/103 60/85/106
f 25/25/107 36/36/108 60/85/106 49/86/75
f 37/38/109 38/37/110 62/84/111 61/74/112
f 38/37/113 39/39/114 63/83/115 62/84/111
f 39/39/116 40/40/117 64/82/118 63/83/115
f 40/40/119 41/41/120 65/81/121 64/82/118
f 41/41/122 42/42/123 66/80/124 65/81/121
f 42/42/125 43/43/126 67/79/127 66/80/124
f 43/43/128 44/44/129 68/78/130 67/79/127
f 44/44/131 45/45/132 69/77/133 68/78/130
f 45/45/134 46/46/135 70/76/136 69/77/133
f 46/46/137 47/47/138 71/75/139 70/76/136
f 47/47/140 48/48/141 72/73/142 71/75/139
f 48/48/143 37/38/144 61/74/112 72/73/142
f 54/54/88 53/53/85 65/65/121 66/66/124
f 53/53/85 52/52/82 64/64/118 65/65/121
f 52/52/82 51/51/79 63/63/115 64/64/118
f 51/51/79 50/97/76 62/61/111 63/63/115
f 50/50/76 49/49/75 61/62/112 62/98/111
f 49/49/75 60/60/106 72/72/142 61/62/112
f 60/60/106 59/59/103 71/71/139 72/72/142
f 59/59/103 58/58/100 70/70/136 71/71/139
f 58/58/100 57/57/97 69/69/133 70/70/136
f 57/57/97 56/56/94 68/68/130 69/69/133
f 56/56/94 55/55/91 67/67/127 68/68/130
f 55/55/91 54/54/88 66/66/124 67/67/127
