# This file uses centimeters as units for non-parametric coordinates.

mtllib Tanque Agua.mtl
g default
v -2.715039 -0.558672 -0.412490
v -2.715039 -0.213394 -0.663350
v -2.715039 0.213394 -0.663350
v -2.715039 0.558673 -0.412490
v -2.715039 0.690557 -0.006591
v -2.715039 0.558673 0.399308
v -2.715039 0.213394 0.650168
v -2.715039 -0.213394 0.650168
v -2.715039 -0.558672 0.399308
v -2.715039 -0.690557 -0.006591
v 2.670828 -0.558672 -0.412490
v 2.670828 -0.213394 -0.663350
v 2.670829 0.213394 -0.663350
v 2.670828 0.558673 -0.412490
v 2.670828 0.690557 -0.006591
v 2.670828 0.558672 0.399308
v 2.670828 0.213394 0.650168
v 2.670829 -0.213394 0.650168
v 2.670828 -0.558672 0.399308
v 2.670828 -0.690557 -0.006591
v -2.597332 -0.809017 -0.594376
v -2.715039 -0.708889 -0.521629
v -2.597332 -0.309017 -0.957648
v -2.715039 -0.270772 -0.839940
v -2.597332 0.309017 -0.957648
v -2.715039 0.270772 -0.839940
v -2.597332 0.809017 -0.594376
v -2.715039 0.708889 -0.521629
v -2.597332 1.000000 -0.006591
v -2.715039 0.876235 -0.006591
v -2.597332 0.809017 0.581194
v -2.715039 0.708889 0.508447
v -2.597332 0.309017 0.944465
v -2.715039 0.270772 0.826758
v -2.597332 -0.309017 0.944465
v -2.715039 -0.270772 0.826758
v -2.597332 -0.809017 0.581194
v -2.715039 -0.708889 0.508447
v -2.597332 -1.000000 -0.006591
v -2.715039 -0.876235 -0.006591
v 2.553121 -0.809017 -0.594376
v 2.670829 -0.708889 -0.521629
v 2.553120 -0.309017 -0.957648
v 2.670828 -0.270772 -0.839940
v 2.553120 0.309017 -0.957648
v 2.670829 0.270772 -0.839940
v 2.553121 0.809017 -0.594376
v 2.670828 0.708889 -0.521629
v 2.553121 1.000000 -0.006591
v 2.670829 0.876235 -0.006591
v 2.553120 0.809017 0.581194
v 2.670829 0.708889 0.508447
v 2.553120 0.309017 0.944465
v 2.670828 0.270772 0.826758
v 2.553120 -0.309017 0.944465
v 2.670828 -0.270772 0.826758
v 2.553120 -0.809017 0.581194
v 2.670829 -0.708889 0.508447
v 2.553121 -1.000000 -0.006591
v 2.670829 -0.876235 -0.006591
v -1.748080 -0.309017 -0.957648
v -1.748080 -0.809017 -0.594376
v -1.748080 -1.000000 -0.006591
v -1.748080 -0.809017 0.581194
v -1.748079 -0.309017 0.944465
v -1.748080 0.309017 0.944465
v -1.748080 0.809017 0.581194
v -1.748080 1.000000 -0.006591
v -1.748080 0.809017 -0.594376
v -1.748080 0.309017 -0.957648
v -1.548443 -0.809017 -0.594376
v -1.548443 -1.000000 -0.006591
v -1.548443 -0.809017 0.581194
v -1.548443 -0.309017 0.944465
v -1.548443 0.309017 0.944465
v -1.548443 0.809017 0.581194
v -1.548443 1.000000 -0.006591
v -1.548443 0.809017 -0.594376
v -1.548443 0.309017 -0.957648
v -1.548443 -0.309017 -0.957648
v 0.730279 -0.809017 -0.594376
v 0.730279 -1.000000 -0.006591
v 0.730279 -0.809017 0.581194
v 0.730279 -0.309017 0.944465
v 0.730279 0.309017 0.944465
v 0.730279 0.809017 0.581194
v 0.730279 1.000000 -0.006591
v 0.730278 0.809017 -0.594376
v 0.730278 0.309017 -0.957648
v 0.730279 -0.309017 -0.957648
v 0.994305 -0.809017 -0.594376
v 0.994304 -1.000000 -0.006591
v 0.994305 -0.809017 0.581194
v 0.994305 -0.309017 0.944465
v 0.994304 0.309017 0.944465
v 0.994304 0.809017 0.581194
v 0.994305 1.000000 -0.006591
v 0.994304 0.809017 -0.594376
v 0.994304 0.309017 -0.957648
v 0.994304 -0.309017 -0.957648
v -1.711189 -0.353966 -1.095987
v -1.711189 -0.926696 -0.679875
v -1.585334 -0.353966 -1.095987
v -1.585334 -0.926696 -0.679875
v -1.711189 -1.145459 -0.006591
v -1.585334 -1.145459 -0.006591
v -1.711189 -0.926695 0.666693
v -1.585334 -0.926695 0.666693
v -1.711189 -0.353966 1.082805
v -1.585334 -0.353966 1.082805
v -1.711189 0.353968 1.082805
v -1.585334 0.353967 1.082805
v -1.711189 0.926695 0.666693
v -1.585334 0.926696 0.666692
v -1.711189 1.145459 -0.006591
v -1.585334 1.145459 -0.006591
v -1.711189 0.926696 -0.679875
v -1.585334 0.926695 -0.679875
v -1.711189 0.353966 -1.095987
v -1.585334 0.353966 -1.095987
v 0.773513 -0.926696 -0.679875
v 0.773513 -1.145459 -0.006591
v 0.951070 -0.926696 -0.679875
v 0.951070 -1.145459 -0.006591
v 0.773514 -0.926696 0.666691
v 0.951070 -0.926696 0.666692
v 0.773514 -0.353966 1.082805
v 0.951070 -0.353965 1.082805
v 0.773513 0.353966 1.082805
v 0.951070 0.353966 1.082805
v 0.773514 0.926695 0.666692
v 0.951070 0.926696 0.666692
v 0.773513 1.145459 -0.006591
v 0.951070 1.145459 -0.006591
v 0.773513 0.926696 -0.679875
v 0.951070 0.926696 -0.679875
v 0.773513 0.353966 -1.095987
v 0.951070 0.353967 -1.095987
v 0.773513 -0.353966 -1.095987
v 0.951070 -0.353966 -1.095987
v -2.715039 0.000000 -0.663350
v -2.715039 0.000000 -0.412490
v -2.715039 0.000000 -0.006591
v -2.715039 0.000000 0.399308
v -2.715039 0.000000 0.650168
v -2.715039 0.000000 0.826758
v -2.597332 0.000000 0.944465
v -1.748080 0.000000 0.944465
v -1.711189 0.000001 1.082805
v -1.585334 0.000000 1.082805
v -1.548443 0.000000 0.944465
v 0.730278 -0.000000 0.944465
v 0.773513 -0.000000 1.082805
v 0.951070 0.000000 1.082805
v 0.994304 -0.000000 0.944465
v 2.553120 -0.000000 0.944465
v 2.670828 -0.000000 0.826758
v 2.670828 0.000000 0.650168
v 2.670828 0.000000 0.399308
v 2.670828 0.000000 -0.006591
v 2.670828 0.000000 -0.412490
v 2.670828 0.000000 -0.663350
v 2.670828 0.000000 -0.839940
v 2.553121 0.000000 -0.957648
v 0.994305 0.000000 -0.957648
v 0.951070 0.000000 -1.095987
v 0.773513 0.000000 -1.095987
v 0.730279 0.000000 -0.957648
v -1.548443 0.000000 -0.957648
v -1.585334 0.000000 -1.095987
v -1.711189 0.000000 -1.095987
v -1.748080 0.000000 -0.957648
v -2.597332 0.000000 -0.957648
v -2.715039 0.000000 -0.839940
vt 0.463125 0.512507
vt 0.524862 0.489809
vt 0.524862 0.489809
vt 0.591067 0.514237
vt 0.591067 0.514237
vt 0.463125 0.512507
vt 0.522605 0.454920
vt 0.451453 0.480550
vt 0.403192 0.536445
vt 0.648948 0.539980
vt 0.605998 0.490802
vt 0.522605 0.454920
vt 0.451453 0.480550
vt 0.403192 0.536445
vt 0.648948 0.539980
vt 0.605998 0.490802
vt 0.522605 0.454920
vt 0.605998 0.490802
vt 0.648948 0.539980
vt 0.403192 0.536445
vt 0.451453 0.480550
vt 0.522605 0.454920
vt 0.605998 0.490802
vt 0.648948 0.539980
vt 0.451453 0.480550
vt 0.403192 0.536445
vt 0.431926 0.546564
vt 0.621251 0.549582
vt 0.431926 0.546564
vt 0.621251 0.549582
vt 0.524862 0.489809
vt 0.591067 0.514237
vt 0.463125 0.512507
vt 0.524862 0.489809
vt 0.463125 0.512507
vt 0.591067 0.514237
vt 0.621251 0.549582
vt 0.431926 0.546564
vt 0.621251 0.549582
vt 0.431926 0.546564
vt 0.754606 0.123328
vt 0.754606 0.109756
vt 0.787745 0.099919
vt 0.787745 0.111700
vt 0.722970 0.155628
vt 0.889345 0.147697
vt 0.821203 0.099919
vt 0.821203 0.111700
vt 0.854829 0.108819
vt 0.854829 0.124620
vt 0.888521 0.147697
vt 0.722146 0.155628
vt 0.755881 0.109756
vt 0.755881 0.123328
vt 0.789538 0.099919
vt 0.789538 0.111700
vt 0.823121 0.099919
vt 0.823121 0.111700
vt 0.856329 0.108819
vt 0.856329 0.124620
vt 0.849642 0.201165
vt 0.849642 0.180826
vt 0.878759 0.180826
vt 0.725633 0.201165
vt 0.819142 0.201165
vt 0.819142 0.180826
vt 0.788348 0.201165
vt 0.788348 0.180826
vt 0.757400 0.201165
vt 0.757400 0.180826
vt 0.726391 0.201165
vt 0.879517 0.180826
vt 0.848469 0.201165
vt 0.848469 0.180826
vt 0.817491 0.201165
vt 0.817491 0.180826
vt 0.786583 0.201165
vt 0.786583 0.180826
vt 0.756019 0.201165
vt 0.756019 0.180826
vt 0.889345 0.159504
vt 0.878759 0.201165
vt 0.725633 0.180826
vt 0.722970 0.144063
vt 0.787745 0.460692
vt 0.753574 0.157656
vt 0.889345 0.465627
vt 0.723435 0.172972
vt 0.855297 0.154158
vt 0.822088 0.152812
vt 0.789538 0.460692
vt 0.754848 0.157656
vt 0.722611 0.172972
vt 0.853797 0.154158
vt 0.820171 0.152812
vt 0.753574 0.175152
vt 0.888238 0.177588
vt 0.724723 0.208326
vt 0.855297 0.171654
vt 0.822088 0.170308
vt 0.788506 0.170308
vt 0.754848 0.175152
vt 0.887414 0.177588
vt 0.853797 0.171654
vt 0.820171 0.170308
vt 0.786713 0.170308
vt 0.755280 0.463141
vt 0.891098 0.685481
vt 0.723643 0.463141
vt 0.857002 0.463141
vt 0.823794 0.463141
vt 0.791291 0.685481
vt 0.756554 0.463141
vt 0.722819 0.463141
vt 0.855502 0.463141
vt 0.821876 0.463141
vt 0.789498 0.685481
vt 0.755280 0.476503
vt 0.890018 0.476503
vt 0.878759 0.542461
vt 0.857002 0.476503
vt 0.823794 0.476503
vt 0.790211 0.476503
vt 0.756554 0.476503
vt 0.889194 0.476503
vt 0.855502 0.476503
vt 0.821876 0.476503
vt 0.788418 0.476503
vt 0.753574 0.162478
vt 0.786713 0.157633
vt 0.786713 0.165854
vt 0.753574 0.170698
vt 0.723435 0.177794
vt 0.723435 0.186014
vt 0.855297 0.158979
vt 0.888238 0.164914
vt 0.888238 0.173134
vt 0.855297 0.167200
vt 0.822088 0.157633
vt 0.822088 0.165854
vt 0.788506 0.157633
vt 0.788506 0.165854
vt 0.754848 0.162478
vt 0.754848 0.170698
vt 0.887414 0.164914
vt 0.887414 0.173134
vt 0.853797 0.158979
vt 0.853797 0.167200
vt 0.820171 0.157633
vt 0.820171 0.165854
vt 0.723643 0.467373
vt 0.755280 0.467373
vt 0.755280 0.472357
vt 0.723643 0.472357
vt 0.857002 0.467373
vt 0.890018 0.467373
vt 0.890018 0.472357
vt 0.857002 0.472357
vt 0.823794 0.467373
vt 0.823794 0.472357
vt 0.790211 0.467373
vt 0.790211 0.472357
vt 0.756554 0.467373
vt 0.756554 0.472357
vt 0.889194 0.467373
vt 0.889194 0.472357
vt 0.855502 0.467373
vt 0.855502 0.472357
vt 0.821876 0.467373
vt 0.821876 0.472357
vt 0.788418 0.467373
vt 0.788418 0.472357
vt 0.633881 0.585956
vt 0.463616 0.585956
vt 0.526332 0.585956
vt 0.589048 0.585956
vt 0.634147 0.585956
vt 0.806329 0.099919
vt 0.667895 0.585956
vt 0.806329 0.111700
vt 0.805297 0.152812
vt 0.805297 0.157633
vt 0.805297 0.165854
vt 0.808082 0.186521
vt 0.807003 0.463141
vt 0.807003 0.467373
vt 0.807003 0.472357
vt 0.802037 0.542461
vt 0.802037 0.201165
vt 0.802037 0.180826
vt 0.385677 0.585956
vt 0.415879 0.587415
vt 0.463351 0.585956
vt 0.526064 0.585956
vt 0.588777 0.585956
vt 0.633874 0.585956
vt 0.803745 0.180826
vt 0.667621 0.585956
vt 0.803745 0.201165
vt 0.805147 0.476503
vt 0.805147 0.472357
vt 0.805147 0.467373
vt 0.806227 0.685481
vt 0.803442 0.170308
vt 0.803442 0.165854
vt 0.803442 0.157633
vt 0.804474 0.460692
vt 0.804474 0.111700
vt 0.804474 0.099919
vt 0.385939 0.585956
vt 0.416135 0.587415
vt 0.385933 0.585956
vt 0.463610 0.585956
vt 0.526326 0.585956
vt 0.589041 0.585956
vt 0.634141 0.585956
vt 0.667889 0.585956
vt 0.667628 0.585956
vt 0.416142 0.587415
vt 0.415885 0.587415
vt 0.385683 0.585956
vt 0.463358 0.585956
vt 0.526071 0.585956
vt 0.588784 0.585956
vt 0.722819 0.467373
vt 0.722819 0.472357
vt 0.879517 0.542461
vt 0.890273 0.685481
vt 0.722611 0.177794
vt 0.722611 0.186014
vt 0.723899 0.208326
vt 0.888521 0.465627
vt 0.879517 0.201165
vt 0.888521 0.159504
vt 0.726391 0.180826
vt 0.722146 0.144063
vt 0.803442 0.152812
vt 0.786713 0.152812
vt 0.806227 0.186521
vt 0.789498 0.186521
vt 0.805147 0.463141
vt 0.788418 0.463141
vt 0.803745 0.542461
vt 0.819142 0.542461
vt 0.807003 0.476503
vt 0.817491 0.542461
vt 0.808082 0.685481
vt 0.790211 0.463141
vt 0.805297 0.170308
vt 0.791291 0.186521
vt 0.806329 0.460692
vt 0.788506 0.152812
vt 0.849642 0.542461
vt 0.788348 0.542461
vt 0.757400 0.542461
vt 0.726391 0.542461
vt 0.722819 0.476503
vt 0.848469 0.542461
vt 0.786583 0.542461
vt 0.756019 0.542461
vt 0.725633 0.542461
vt 0.723643 0.476503
vt 0.756359 0.685481
vt 0.822956 0.685481
vt 0.856582 0.685481
vt 0.723899 0.685481
vt 0.889194 0.463141
vt 0.757633 0.685481
vt 0.824874 0.685481
vt 0.858082 0.685481
vt 0.724723 0.685481
vt 0.890018 0.463141
vt 0.756359 0.189087
vt 0.822956 0.186521
vt 0.856582 0.191652
vt 0.890273 0.208326
vt 0.722611 0.190468
vt 0.757633 0.189087
vt 0.824874 0.186521
vt 0.858082 0.191652
vt 0.891098 0.208326
vt 0.723435 0.190468
vt 0.821203 0.460692
vt 0.854829 0.461853
vt 0.722146 0.465627
vt 0.887414 0.160092
vt 0.755881 0.461272
vt 0.823121 0.460692
vt 0.856329 0.461853
vt 0.722970 0.465627
vt 0.888238 0.160092
vt 0.754606 0.461272
vn -1.000000 0.000000 0.000000
vn -1.000000 -0.000000 0.000000
vn -1.000000 0.000000 0.000000
vn -1.000000 0.000000 0.000000
vn -1.000000 -0.000000 0.000000
vn -1.000000 0.000000 0.000000
vn -1.000000 0.000000 0.000000
vn -1.000000 0.000000 -0.000000
vn -1.000000 0.000000 -0.000000
vn -1.000000 0.000000 -0.000000
vn -1.000000 0.000000 0.000000
vn -1.000000 0.000000 0.000000
vn -1.000000 0.000000 0.000000
vn 1.000000 -0.000001 -0.000000
vn 1.000000 -0.000001 -0.000000
vn 1.000000 0.000000 0.000000
vn 1.000000 0.000000 0.000000
vn 1.000000 -0.000000 0.000000
vn 1.000000 0.000000 0.000000
vn 1.000000 0.000000 0.000000
vn 1.000000 0.000000 0.000000
vn 1.000000 -0.000000 0.000000
vn 1.000000 -0.000000 0.000000
vn 1.000000 -0.000000 -0.000000
vn 1.000000 0.000000 0.000000
vn 1.000000 0.000000 0.000000
vn -0.104754 -0.804566 -0.584551
vn -0.724619 -0.557534 -0.405072
vn -0.722608 -0.283158 -0.630602
vn -0.104151 -0.407399 -0.907292
vn -0.104754 -0.994498 0.000000
vn -0.724619 -0.689150 -0.000000
vn -0.114309 -0.000000 -0.993445
vn -0.707108 -0.000000 -0.707106
vn -0.722609 0.283158 -0.630602
vn -0.104151 0.407399 -0.907292
vn -0.724619 0.557534 -0.405072
vn -0.104754 0.804566 -0.584551
vn -0.724618 0.689150 0.000000
vn -0.104754 0.994498 0.000000
vn -0.724618 0.557534 0.405073
vn -0.104754 0.804566 0.584551
vn -0.722608 0.283158 0.630602
vn -0.104151 0.407399 0.907292
vn -0.707108 0.000000 0.707105
vn -0.114309 0.000000 0.993445
vn -0.104151 -0.407399 0.907292
vn -0.722609 -0.283158 0.630601
vn -0.724619 -0.557534 0.405072
vn -0.104753 -0.804566 0.584551
vn 0.060020 -0.807559 -0.586726
vn 0.724616 -0.557536 -0.405075
vn 0.724615 -0.689154 0.000000
vn 0.060020 -0.998197 -0.000000
vn 0.059672 -0.408897 -0.910627
vn 0.722605 -0.283158 -0.630605
vn 0.707105 0.000000 -0.707109
vn 0.066008 0.000000 -0.997819
vn 0.059672 0.408897 -0.910627
vn 0.722605 0.283159 -0.630605
vn 0.060020 0.807559 -0.586726
vn 0.724616 0.557536 -0.405075
vn 0.060020 0.998197 -0.000000
vn 0.724615 0.689154 0.000001
vn 0.060020 0.807558 0.586726
vn 0.724615 0.557538 0.405075
vn 0.059672 0.408897 0.910627
vn 0.722604 0.283160 0.630606
vn 0.066008 0.000000 0.997819
vn 0.707104 0.000000 0.707109
vn 0.722605 -0.283159 0.630606
vn 0.059672 -0.408897 0.910628
vn 0.060020 -0.807559 0.586726
vn 0.724615 -0.557537 0.405075
vn 0.000000 -0.409627 -0.912253
vn 0.000000 -0.809017 -0.587785
vn 0.000000 0.000000 -1.000000
vn 0.000000 0.409627 -0.912253
vn 0.000000 0.809017 -0.587785
vn 0.000000 1.000000 0.000000
vn -0.000000 0.809017 0.587785
vn -0.000000 0.409627 0.912253
vn -0.000000 0.000000 1.000000
vn 0.000000 -0.809017 0.587785
vn 0.000000 -0.409627 0.912253
vn 0.000000 -1.000000 0.000000
vn -1.000000 -0.000001 0.000000
vn -1.000000 -0.000000 0.000000
vn -1.000000 -0.000000 0.000000
vn -1.000000 -0.000000 0.000000
vn -1.000000 0.000000 0.000001
vn -1.000000 0.000000 0.000000
vn -1.000000 -0.000000 0.000000
vn -1.000000 -0.000001 0.000000
vn -1.000000 0.000000 0.000000
vn -1.000000 0.000001 0.000000
vn -1.000000 0.000000 -0.000000
vn -1.000000 -0.000001 0.000000
vn -1.000000 -0.000000 -0.000000
vn -1.000000 -0.000000 0.000000
vn -1.000000 -0.000000 0.000000
vn -1.000000 -0.000000 0.000000
vn -1.000000 -0.000000 0.000000
vn 1.000000 0.000002 0.000000
vn 1.000000 0.000000 0.000000
vn 1.000000 0.000000 0.000000
vn 1.000000 0.000001 0.000000
vn 1.000000 -0.000000 -0.000000
vn 1.000000 -0.000001 0.000000
vn 1.000000 -0.000001 0.000000
vn 1.000000 -0.000002 -0.000000
vn 1.000000 -0.000002 -0.000001
vn 1.000000 -0.000000 -0.000001
vn 1.000000 0.000000 0.000000
vn 1.000000 0.000001 0.000000
vn 1.000000 0.000002 -0.000000
vn 1.000000 0.000001 -0.000000
vn 1.000000 0.000000 -0.000000
vn 1.000000 0.000002 0.000000
vn 1.000000 0.000001 0.000000
vn -0.000000 -0.809017 -0.587785
vn -0.000000 -0.409627 -0.912253
vn -0.000000 -0.409628 -0.912253
vn -0.000000 -0.809017 -0.587785
vn 0.000000 -1.000000 -0.000000
vn 0.000000 -1.000000 -0.000000
vn 0.000001 -0.809016 0.587786
vn 0.000001 -0.809017 0.587785
vn 0.000001 -0.409626 0.912253
vn 0.000001 -0.409627 0.912253
vn 0.000002 0.409628 0.912253
vn -0.000000 0.000000 1.000000
vn -0.000000 0.000000 1.000000
vn 0.000002 0.409626 0.912254
vn 0.000002 0.809017 0.587785
vn 0.000002 0.809018 0.587784
vn 0.000000 1.000000 0.000000
vn 0.000000 1.000000 0.000000
vn -0.000000 0.809017 -0.587785
vn -0.000000 0.809016 -0.587786
vn -0.000001 0.409627 -0.912253
vn -0.000001 0.409627 -0.912253
vn 0.000000 0.000000 -1.000000
vn 0.000000 0.000000 -1.000000
vn -0.000000 -1.000000 0.000000
vn 0.000000 -0.809017 -0.587785
vn 0.000000 -0.809017 -0.587785
vn -0.000000 -1.000000 -0.000000
vn -0.000000 -0.809017 0.587785
vn -0.000000 -0.809017 0.587785
vn -0.000000 -0.409627 0.912253
vn -0.000000 -0.409627 0.912253
vn 0.000000 0.409627 0.912253
vn 0.000000 0.000000 1.000000
vn 0.000000 0.000000 1.000000
vn 0.000000 0.409627 0.912253
vn 0.000000 0.809017 0.587785
vn 0.000000 0.809017 0.587785
vn 0.000000 1.000000 0.000000
vn 0.000000 1.000000 0.000000
vn 0.000000 0.809017 -0.587785
vn 0.000000 0.809017 -0.587785
vn 0.000000 0.409627 -0.912253
vn 0.000000 0.409627 -0.912253
vn 0.000000 0.000000 -1.000000
vn 0.000000 0.000000 -1.000000
vn 0.000000 -0.409627 -0.912253
vn 0.000000 -0.409627 -0.912253
vn -0.000001 -1.000000 -0.000000
vn 0.000000 -0.809017 -0.587785
vn 0.000000 -0.809017 -0.587785
vn -0.000001 -1.000000 -0.000000
vn -0.000001 -0.809017 0.587785
vn -0.000001 -0.809016 0.587786
vn -0.000000 -0.409628 0.912253
vn -0.000000 -0.409626 0.912253
vn 0.000000 0.409627 0.912253
vn 0.000000 0.000000 1.000000
vn 0.000000 0.000000 1.000000
vn 0.000000 0.409627 0.912253
vn -0.000000 0.809017 0.587786
vn -0.000000 0.809017 0.587785
vn -0.000000 1.000000 -0.000000
vn -0.000000 1.000000 -0.000000
vn -0.000000 0.809017 -0.587785
vn -0.000000 0.809017 -0.587785
vn -0.000001 0.409627 -0.912253
vn -0.000001 0.409628 -0.912253
vn -0.000000 0.000000 -1.000000
vn -0.000000 0.000000 -1.000000
vn 0.000001 -0.409627 -0.912253
vn 0.000001 -0.409627 -0.912253
vn 0.000000 -1.000000 -0.000000
vn -0.000000 -0.809017 -0.587785
vn 0.000000 -0.809017 0.587785
vn 0.000000 -0.409627 0.912253
vn 0.000000 0.409627 0.912253
vn 0.000000 0.000000 1.000000
vn 0.000000 0.809017 0.587785
vn 0.000000 1.000000 0.000000
vn -0.000000 0.809017 -0.587785
vn -0.000000 0.409627 -0.912253
vn -0.000000 0.000000 -1.000000
vn -0.000000 -0.409627 -0.912253
vn -0.966235 -0.151450 -0.208455
vn -0.966235 -0.151450 -0.208455
vn -0.966235 -0.151450 -0.208455
vn -0.966235 -0.151450 -0.208455
vn 0.966234 -0.151451 -0.208456
vn 0.966234 -0.151451 -0.208456
vn 0.966234 -0.151451 -0.208456
vn 0.966234 -0.151451 -0.208456
vn -0.966235 -0.245053 -0.079622
vn -0.966235 -0.245053 -0.079622
vn -0.966235 -0.245053 -0.079622
vn -0.966235 -0.245053 -0.079622
vn 0.966235 -0.245053 -0.079623
vn 0.966235 -0.245053 -0.079623
vn 0.966235 -0.245053 -0.079623
vn 0.966235 -0.245053 -0.079623
vn -0.966234 -0.245054 0.079623
vn -0.966234 -0.245054 0.079623
vn -0.966234 -0.245054 0.079623
vn -0.966234 -0.245054 0.079623
vn 0.966234 -0.245054 0.079623
vn 0.966234 -0.245054 0.079623
vn 0.966234 -0.245054 0.079623
vn 0.966234 -0.245054 0.079623
vn -0.966235 -0.151450 0.208454
vn -0.966235 -0.151450 0.208454
vn -0.966235 -0.151450 0.208454
vn -0.966235 -0.151450 0.208454
vn 0.966234 -0.151451 0.208455
vn 0.966235 -0.151451 0.208455
vn 0.966235 -0.151451 0.208455
vn 0.966235 -0.151451 0.208455
vn -0.966235 0.000000 0.257664
vn -0.966235 -0.000000 0.257664
vn -0.966235 0.000000 0.257664
vn -0.966235 0.000000 0.257664
vn 0.966234 0.000000 0.257666
vn 0.966234 0.000000 0.257666
vn 0.966234 -0.000000 0.257667
vn 0.966234 -0.000000 0.257667
vn -0.966235 0.151451 0.208454
vn -0.966235 0.151451 0.208454
vn -0.966235 0.151451 0.208454
vn -0.966235 0.151451 0.208454
vn 0.966234 0.151452 0.208456
vn 0.966234 0.151452 0.208456
vn 0.966234 0.151452 0.208456
vn 0.966234 0.151452 0.208456
vn -0.966235 0.245053 0.079623
vn -0.966235 0.245053 0.079623
vn -0.966235 0.245053 0.079623
vn -0.966235 0.245053 0.079623
vn 0.966235 0.245054 0.079623
vn 0.966235 0.245054 0.079623
vn 0.966234 0.245054 0.079623
vn 0.966235 0.245054 0.079623
vn -0.966235 0.245053 -0.079623
vn -0.966235 0.245053 -0.079623
vn -0.966235 0.245053 -0.079623
vn -0.966235 0.245053 -0.079623
vn 0.966234 0.245054 -0.079623
vn 0.966234 0.245054 -0.079623
vn 0.966234 0.245054 -0.079623
vn 0.966234 0.245054 -0.079623
vn -0.966235 0.151451 -0.208455
vn -0.966235 0.151451 -0.208455
vn -0.966235 0.151451 -0.208455
vn -0.966235 0.151451 -0.208455
vn 0.966234 0.151452 -0.208455
vn 0.966234 0.151452 -0.208455
vn 0.966234 0.151452 -0.208455
vn 0.966234 0.151452 -0.208455
vn -0.966235 0.000000 -0.257664
vn -0.966235 0.000000 -0.257664
vn -0.966235 0.000000 -0.257664
vn -0.966235 0.000000 -0.257664
vn 0.966234 0.000001 -0.257665
vn 0.966234 0.000000 -0.257665
vn 0.966234 -0.000000 -0.257665
vn 0.966234 0.000001 -0.257665
vn -0.954473 -0.283697 -0.092179
vn -0.954473 -0.283697 -0.092179
vn -0.954473 -0.283697 -0.092179
vn -0.954473 -0.283697 -0.092179
vn 0.954473 -0.283698 -0.092179
vn 0.954473 -0.283698 -0.092179
vn 0.954473 -0.283698 -0.092179
vn 0.954473 -0.283698 -0.092179
vn -0.954472 -0.283699 0.092180
vn -0.954472 -0.283699 0.092180
vn -0.954472 -0.283699 0.092180
vn -0.954472 -0.283699 0.092180
vn 0.954473 -0.283697 0.092178
vn 0.954473 -0.283697 0.092178
vn 0.954473 -0.283697 0.092178
vn 0.954473 -0.283697 0.092178
vn -0.954472 -0.175336 0.241330
vn -0.954472 -0.175336 0.241330
vn -0.954472 -0.175336 0.241330
vn -0.954472 -0.175336 0.241330
vn 0.954473 -0.175335 0.241328
vn 0.954473 -0.175335 0.241328
vn 0.954473 -0.175335 0.241328
vn 0.954473 -0.175335 0.241328
vn -0.954473 0.000001 0.298299
vn -0.954472 -0.000000 0.298299
vn -0.954472 -0.000000 0.298299
vn -0.954473 0.000001 0.298299
vn 0.954473 0.000000 0.298296
vn 0.954473 0.000000 0.298296
vn 0.954473 -0.000000 0.298296
vn 0.954473 -0.000000 0.298296
vn -0.954473 0.175336 0.241329
vn -0.954473 0.175336 0.241329
vn -0.954473 0.175336 0.241329
vn -0.954472 0.175336 0.241329
vn 0.954473 0.175335 0.241328
vn 0.954473 0.175335 0.241328
vn 0.954473 0.175335 0.241328
vn 0.954473 0.175335 0.241328
vn -0.954473 0.283698 0.092179
vn -0.954473 0.283698 0.092179
vn -0.954473 0.283698 0.092179
vn -0.954473 0.283698 0.092179
vn 0.954473 0.283699 0.092180
vn 0.954473 0.283699 0.092180
vn 0.954473 0.283699 0.092180
vn 0.954473 0.283699 0.092180
vn -0.954473 0.283698 -0.092179
vn -0.954473 0.283698 -0.092179
vn -0.954473 0.283698 -0.092179
vn -0.954473 0.283698 -0.092179
vn 0.954473 0.283697 -0.092179
vn 0.954473 0.283697 -0.092179
vn 0.954473 0.283697 -0.092179
vn 0.954473 0.283697 -0.092179
vn -0.954473 0.175336 -0.241328
vn -0.954473 0.175336 -0.241328
vn -0.954473 0.175336 -0.241328
vn -0.954473 0.175336 -0.241328
vn 0.954474 0.175333 -0.241326
vn 0.954474 0.175333 -0.241326
vn 0.954474 0.175333 -0.241326
vn 0.954474 0.175333 -0.241326
vn -0.954473 -0.000000 -0.298297
vn -0.954473 -0.000000 -0.298297
vn -0.954473 -0.000001 -0.298297
vn -0.954473 -0.000001 -0.298297
vn 0.954473 0.000001 -0.298297
vn 0.954473 -0.000000 -0.298297
vn 0.954473 0.000000 -0.298297
vn 0.954473 0.000001 -0.298297
vn -0.954473 -0.175334 -0.241327
vn -0.954473 -0.175334 -0.241327
vn -0.954473 -0.175334 -0.241327
vn -0.954473 -0.175334 -0.241327
vn 0.954473 -0.175335 -0.241329
vn 0.954473 -0.175335 -0.241329
vn 0.954473 -0.175335 -0.241329
vn 0.954473 -0.175335 -0.241329
vn -0.966235 -0.000000 0.257663
vn -0.966235 -0.000000 0.257663
vn 0.966234 0.000001 0.257666
vn 0.966234 0.000001 0.257666
vn -0.954472 -0.000001 0.298299
vn -0.954472 -0.000001 0.298299
vn 0.954473 0.000001 0.298296
vn 0.954473 0.000001 0.298296
vn 0.954473 -0.000001 -0.298298
vn 0.954473 -0.000001 -0.298298
vn -0.954473 0.000000 -0.298296
vn -0.954473 0.000000 -0.298296
vn 0.966234 -0.000001 -0.257665
vn 0.966234 -0.000001 -0.257665
vn -0.966235 0.000000 -0.257664
vn -0.966235 0.000000 -0.257664
s 1
g Tanque_Agua1 Props
usemtl lambert12SG
f 6/1/1 5/2/2 143/223/3 144/222/4
f 5/2/2 4/5/5 142/224/6 143/223/7
f 141/173/8 142/224/9 4/5/5 3/28/10
f 7/29/11 6/1/1 144/222/12 145/220/13
s 5
f 15/31/14 16/32/15 159/215/16 160/214/17
f 14/35/18 15/31/14 160/214/19 161/213/20
f 161/213/21 162/211/22 13/38/23 14/35/18
f 17/39/24 158/216/25 159/215/26 16/32/15
s 9
f 21/41/27 22/42/28 24/43/29 23/44/30
f 22/42/28 21/41/27 39/45/31 40/84/32
f 173/208/33 174/209/34 26/47/35 25/48/36
f 25/48/36 26/47/35 28/49/37 27/50/38
f 27/50/38 28/49/37 30/51/39 29/234/40
f 29/52/40 30/236/39 32/53/41 31/54/42
f 31/54/42 32/53/41 34/55/43 33/56/44
f 33/56/44 34/55/43 146/178/45 147/180/46
f 35/58/47 36/57/48 38/59/49 37/60/50
f 37/60/50 38/59/49 40/46/32 39/81/31
s 10
f 41/61/51 42/62/52 60/63/53 59/82/54
f 42/62/52 41/61/51 43/65/55 44/66/56
f 163/197/57 164/199/58 45/67/59 46/68/60
f 46/68/60 45/67/59 47/69/61 48/70/62
f 48/70/62 47/69/61 49/71/63 50/235/64
f 50/72/64 49/233/63 51/73/65 52/74/66
f 52/74/66 51/73/65 53/75/67 54/76/68
f 54/76/68 53/75/67 156/189/69 157/190/70
f 56/78/71 55/77/72 57/79/73 58/80/74
f 58/80/74 57/79/73 59/64/54 60/83/53
s 9
f 21/41/27 23/44/30 61/85/75 62/292/76
f 172/207/77 173/208/33 25/48/36 70/283/78
f 25/48/36 27/50/38 69/284/79 70/283/78
f 27/50/38 29/234/40 68/232/80 69/284/79
f 29/52/40 31/54/42 67/287/81 68/285/80
f 31/54/42 33/56/44 66/91/82 67/287/81
f 33/56/44 147/180/46 148/251/83 66/91/82
f 35/58/47 37/60/50 64/289/84 65/288/85
f 37/60/50 39/81/31 63/87/86 64/289/84
f 39/45/31 21/41/27 62/292/76 63/290/86
s 1
f 24/26/87 22/25/88 1/6/89 2/27/90
f 26/24/91 174/218/92 141/173/8 3/28/10
f 28/23/93 26/24/91 3/28/10 4/5/5
f 30/22/94 28/23/93 4/5/5 5/2/2
f 32/21/95 30/22/94 5/2/2 6/1/1
f 34/20/96 32/21/95 6/1/1 7/29/11
f 145/220/13 146/221/97 34/20/96 7/29/11
f 38/18/98 36/19/99 8/30/100 9/4/101
f 40/17/102 38/18/98 9/4/101 10/3/103
f 22/25/88 40/17/102 10/3/103 1/6/89
s 5
f 42/16/104 44/15/105 12/37/106 11/36/107
f 162/211/22 163/212/108 46/14/109 13/38/23
f 46/14/109 48/13/110 14/35/18 13/38/23
f 48/13/110 50/12/111 15/31/14 14/35/18
f 50/12/111 52/11/112 16/32/15 15/31/14
f 52/11/112 54/10/113 17/39/24 16/32/15
f 54/10/113 157/217/114 158/216/25 17/39/24
f 56/9/115 58/8/116 19/33/117 18/40/118
f 58/8/116 60/7/119 20/34/120 19/33/117
f 60/7/119 42/16/104 11/36/107 20/34/120
s 14
f 102/129/121 101/130/122 103/131/123 104/132/124
f 105/133/125 102/129/121 104/132/124 106/134/126
f 107/135/127 105/136/125 106/137/126 108/138/128
f 109/139/129 107/135/127 108/138/128 110/140/130
f 111/141/131 149/182/132 150/183/133 112/142/134
f 113/143/135 111/141/131 112/142/134 114/144/136
f 115/229/137 113/143/135 114/144/136 116/230/138
f 117/147/139 115/145/137 116/146/138 118/148/140
f 119/149/141 117/147/139 118/148/140 120/150/142
f 170/205/143 171/206/144 119/149/141 120/150/142
s 15
f 72/98/145 71/273/146 81/263/147 82/271/148
f 73/280/149 72/281/145 82/108/148 83/270/150
f 74/279/151 73/280/149 83/270/150 84/269/152
f 75/250/153 151/184/154 152/247/155 85/112/156
f 76/278/157 75/250/153 85/112/156 86/268/158
f 77/231/159 76/278/157 86/268/158 87/266/160
f 78/275/161 77/276/159 87/228/160 88/265/162
f 79/274/163 78/275/161 88/265/162 89/264/164
f 168/203/165 169/239/166 79/274/163 89/264/164
f 71/273/146 80/240/167 90/117/168 81/263/147
s 16
f 122/151/169 121/152/170 123/153/171 124/154/172
f 125/155/173 122/156/169 124/157/172 126/158/174
f 127/159/175 125/155/173 126/158/174 128/160/176
f 129/161/177 153/186/178 154/187/179 130/162/180
f 131/163/181 129/161/177 130/162/180 132/164/182
f 133/225/183 131/163/181 132/164/182 134/226/184
f 135/167/185 133/165/183 134/166/184 136/168/186
f 137/169/187 135/167/185 136/168/186 138/170/188
f 166/201/189 167/202/190 137/169/187 138/170/188
f 121/152/170 139/171/191 140/172/192 123/153/171
s 10
f 92/120/193 91/253/194 41/61/51 59/82/54
f 93/260/195 92/261/193 59/64/54 57/79/73
f 94/259/196 93/260/195 57/79/73 55/77/72
f 95/246/197 155/188/198 156/189/69 53/75/67
f 96/258/199 95/246/197 53/75/67 51/73/65
f 97/227/200 96/258/199 51/73/65 49/233/63
f 98/255/201 97/256/200 49/71/63 47/69/61
f 99/254/202 98/255/201 47/69/61 45/67/59
f 164/199/58 165/243/203 99/254/202 45/67/59
f 91/253/194 100/244/204 43/65/55 41/61/51
s off
f 62/86/205 61/238/206 101/130/207 102/129/208
f 80/106/209 71/96/210 104/132/211 103/131/212
f 63/88/213 62/86/214 102/129/215 105/133/216
f 71/96/217 72/282/218 106/134/219 104/132/220
f 64/89/221 63/291/222 105/136/223 107/135/224
f 72/97/225 73/99/226 108/138/227 106/137/228
f 65/90/229 64/89/230 107/135/231 109/139/232
f 73/99/233 74/100/234 110/140/235 108/138/236
s 17
f 66/252/237 148/181/238 149/182/239 111/141/240
s 18
f 150/183/241 151/249/242 75/101/243 112/142/244
s off
f 67/92/245 66/252/246 111/141/247 113/143/248
f 75/101/249 76/102/250 114/144/251 112/142/252
f 68/93/253 67/92/254 113/143/255 115/229/256
f 76/102/257 77/277/258 116/230/259 114/144/260
f 69/94/261 68/286/262 115/145/263 117/147/264
f 77/103/265 78/104/266 118/148/267 116/146/268
f 70/95/269 69/94/270 117/147/271 119/149/272
f 78/104/273 79/105/274 120/150/275 118/148/276
s 19
f 171/206/277 172/237/278 70/95/279 119/149/280
s 20
f 79/105/281 169/204/282 170/205/283 120/150/284
s off
f 82/109/285 81/107/286 121/152/287 122/151/288
f 91/118/289 92/262/290 124/154/291 123/153/292
f 83/110/293 82/272/294 122/156/295 125/155/296
f 92/119/297 93/121/298 126/158/299 124/157/300
f 84/111/301 83/110/302 125/155/303 127/159/304
f 93/121/305 94/122/306 128/160/307 126/158/308
s 21
f 85/248/309 152/185/310 153/186/311 129/161/312
s 22
f 154/187/313 155/245/314 95/123/315 130/162/316
s off
f 86/113/317 85/248/318 129/161/319 131/163/320
f 95/123/321 96/124/322 132/164/323 130/162/324
f 87/114/325 86/113/326 131/163/327 133/225/328
f 96/124/329 97/257/330 134/226/331 132/164/332
f 88/115/333 87/267/334 133/165/335 135/167/336
f 97/125/337 98/126/338 136/168/339 134/166/340
f 89/116/341 88/115/342 135/167/343 137/169/344
f 98/126/345 99/127/346 138/170/347 136/168/348
s 23
f 167/202/349 168/241/350 89/116/351 137/169/352
s 24
f 99/127/353 165/200/354 166/201/355 138/170/356
s off
f 81/107/357 90/242/358 139/171/359 121/152/360
f 100/128/361 91/118/362 123/153/363 140/172/364
s 1
f 2/27/90 1/6/89 142/174/9 141/219/8
f 143/175/7 142/174/6 1/6/89 10/3/103
f 144/176/4 143/175/3 10/3/103 9/4/101
f 145/177/13 144/176/12 9/4/101 8/30/100
f 36/19/99 146/179/97 145/177/13 8/30/100
s 9
f 147/180/46 146/178/45 36/57/48 35/58/47
f 148/251/83 147/180/46 35/58/47 65/288/85
s 17
f 149/182/239 148/181/238 65/90/365 109/139/366
s 14
f 150/183/133 149/182/132 109/139/129 110/140/130
s 18
f 74/100/367 151/249/242 150/183/241 110/140/368
s 15
f 152/247/155 151/184/154 74/279/151 84/269/152
s 21
f 153/186/311 152/185/310 84/111/369 127/159/370
s 16
f 154/187/179 153/186/178 127/159/175 128/160/176
s 22
f 94/122/371 155/245/314 154/187/313 128/160/372
s 10
f 156/189/69 155/188/198 94/259/196 55/77/72
f 157/190/70 156/189/69 55/77/72 56/78/71
s 5
f 158/192/25 157/191/114 56/9/115 18/40/118
f 159/193/26 158/192/25 18/40/118 19/33/117
f 160/194/17 159/193/16 19/33/117 20/34/120
f 161/195/20 160/194/19 20/34/120 11/36/107
f 12/37/106 162/196/22 161/195/21 11/36/107
f 44/15/105 163/198/108 162/196/22 12/37/106
s 10
f 44/66/56 43/65/55 164/199/58 163/197/57
f 100/244/204 165/243/203 164/199/58 43/65/55
s 24
f 166/201/355 165/200/354 100/128/373 140/172/374
s 16
f 139/171/191 167/202/190 166/201/189 140/172/192
s 23
f 90/242/375 168/241/350 167/202/349 139/171/376
s 15
f 80/240/167 169/239/166 168/203/165 90/117/168
s 20
f 170/205/283 169/204/282 80/106/377 103/131/378
s 14
f 101/130/122 171/206/144 170/205/143 103/131/123
s 19
f 61/238/379 172/237/278 171/206/277 101/130/380
s 9
f 23/44/30 173/208/33 172/207/77 61/85/75
f 23/44/30 24/43/29 174/209/34 173/208/33
s 1
f 141/219/8 174/210/92 24/26/87 2/27/90
