%YAML 1.1
%TAG !u! tag:unity3d.com,2011:
--- !u!1045 &1
EditorBuildSettings:
  m_ObjectHideFlags: 0
  serializedVersion: 2
  m_Scenes:
  - enabled: 1
    path: Assets/Scenes/StartScene.unity
    guid: 5922c068e23c2438ca04f75644b8f384
  - enabled: 1
    path: Assets/Scenes/MainScene.unity
    guid: 941962d6a5352428c827f7a18f0e36c7
  m_configObjects:
    com.unity.input.settings: {fileID: 11400000, guid: 383fc198ea31a6e498adb3178fa1896d,
      type: 2}
